{"photos":{"page":1,"pages":3758,"perpage":100,"total":375760,"photo":[{"id":"51857318074","owner":"84080372@N03","secret":"d49ffb0ce7","server":"65535","farm":66,"title":"Berlin","ispublic":1,"isfriend":0,"isfamily":0},{"id":"51857645280","owner":"84080372@N03","secret":"357b2ec73d","server":"65535","farm":66,"title":"Berlin","ispublic":1,"isfriend":0,"isfamily":0},{"id":"51857073028","owner":"84080372@N03","secret":"d5297e53f4","server":"65535","farm":66,"title":"Berlin","ispublic":1,"isfriend":0,"isfamily":0},{"id":"51856989716","owner":"84080372@N03","secret":"94a75066f0","server":"65535","farm":66,"title":"Berlin","ispublic":1,"isfriend":0,"isfamily":0},{"id":"51857072953","owner":"84080372@N03","secret":"35309b6b5a","server":"65535","farm":66,"title":"Berlin","ispublic":1,"isfriend":0,"isfamily":0},{"id":"51857317954","owner":"84080372@N03","secret":"e1933b5bea","server":"65535","farm":66,"title":"Berlin","ispublic":1,"isfriend":0,"isfamily":0},{"id":"51856967851","owner":"194120709@N02","secret":"7e9aa356a1","server":"65535","farm":66,"title":"1917","ispublic":1,"isfriend":0,"isfamily":0},{"id":"51857291869","owner":"48576976@N04","secret":"afd7e51fe7","server":"65535","farm":66,"title":"IMG_8051","ispublic":1,"isfriend":0,"isfamily":0},{"id":"51856907941","owner":"193443997@N06","secret":"c69bbf93dc","server":"65535","farm":66,"title":"Berlin-Mitte","ispublic":1,"isfriend":0,"isfamily":0},{"id":"51857228649","owner":"153557725@N07","secret":"4e342103af","server":"0","farm":0,"title":"FV701 Ferret Mark 2 Armoured Car 87BA11 Video at Tankfest 2021","ispublic":1,"isfriend":0,"isfamily":0},{"id":"51857229319","owner":"153557725@N07","secret":"f1a1bc9a16","server":"65535","farm":66,"title":"FV701 Ferret Mark 2 Armoured Car 87BA11 at Tankfest 2021","ispublic":1,"isfriend":0,"isfamily":0},{"id":"51856983593","owner":"153557725@N07","secret":"c03a7dcd9a","server":"65535","farm":66,"title":"FV701 Ferret Mark 2 Armoured Car 87BA11 at Tankfest 2021","ispublic":1,"isfriend":0,"isfamily":0},{"id":"51857555690","owner":"153557725@N07","secret":"beea4d8bed","server":"65535","farm":66,"title":"FV701 Ferret Mark 2 Armoured Car 87BA11 at Tankfest 2021","ispublic":1,"isfriend":0,"isfamily":0},{"id":"51855941267","owner":"153557725@N07","secret":"cf57dcf523","server":"65535","farm":66,"title":"FV701 Ferret Mark 2 Armoured Car 87BA11 at Tankfest 2021","ispublic":1,"isfriend":0,"isfamily":0},{"id":"51857229014","owner":"153557725@N07","secret":"ba8a45a5e9","server":"65535","farm":66,"title":"FV701 Ferret Mark 2 Armoured Car 87BA11 at Tankfest 2021","ispublic":1,"isfriend":0,"isfamily":0},{"id":"51857555440","owner":"153557725@N07","secret":"3dfc210589","server":"65535","farm":66,"title":"FV701 Ferret Mark 2 Armoured Car 87BA11 at Tankfest 2021","ispublic":1,"isfriend":0,"isfamily":0},{"id":"51856983068","owner":"153557725@N07","secret":"9bbcd8399f","server":"65535","farm":66,"title":"FV701 Ferret Mark 2 Armoured Car 87BA11 at Tankfest 2021","ispublic":1,"isfriend":0,"isfamily":0},{"id":"51856962103","owner":"63840098@N06","secret":"17938c7f83","server":"65535","farm":66,"title":"1976 MERCEDES-BENZ W123 230 Berline","ispublic":1,"isfriend":0,"isfamily":0},{"id":"51855919327","owner":"63840098@N06","secret":"8f4959a9af","server":"65535","farm":66,"title":"1976 MERCEDES-BENZ W123 230 Berline","ispublic":1,"isfriend":0,"isfamily":0},{"id":"51857487675","owner":"63840098@N06","secret":"dd1e998d7d","server":"65535","farm":66,"title":"1976 MERCEDES-BENZ W123 230 Berline","ispublic":1,"isfriend":0,"isfamily":0},{"id":"51855906867","owner":"156825526@N03","secret":"d39d141775","server":"65535","farm":66,"title":"Berlin","ispublic":1,"isfriend":0,"isfamily":0},{"id":"51855906847","owner":"156825526@N03","secret":"241ff41a22","server":"65535","farm":66,"title":"Berlin","ispublic":1,"isfriend":0,"isfamily":0},{"id":"51856865846","owner":"156825526@N03","secret":"a3d9c0696d","server":"65535","farm":66,"title":"Berlin","ispublic":1,"isfriend":0,"isfamily":0},{"id":"51857522100","owner":"156825526@N03","secret":"81bf87c413","server":"65535","farm":66,"title":"Berlin","ispublic":1,"isfriend":0,"isfamily":0},{"id":"51856865541","owner":"156825526@N03","secret":"7592c64195","server":"65535","farm":66,"title":"Berlin","ispublic":1,"isfriend":0,"isfamily":0},{"id":"51857162084","owner":"88704109@N00","secret":"8a99162f31","server":"65535","farm":66,"title":"Spandau Citadel","ispublic":1,"isfriend":0,"isfamily":0},{"id":"51857489715","owner":"88704109@N00","secret":"29a93757d6","server":"65535","farm":66,"title":"Spandau Citadel","ispublic":1,"isfriend":0,"isfamily":0},{"id":"51856833021","owner":"88704109@N00","secret":"a3025f27ce","server":"65535","farm":66,"title":"Spandau Citadel","ispublic":1,"isfriend":0,"isfamily":0},{"id":"51856871798","owner":"18317144@N04","secret":"1871330243","server":"65535","farm":66,"title":"No.1 at Maceira","ispublic":1,"isfriend":0,"isfamily":0},{"id":"51857427715","owner":"194947163@N06","secret":"1faf108733","server":"65535","farm":66,"title":"Neues Museum,Berlin","ispublic":1,"isfriend":0,"isfamily":0},{"id":"51856848868","owner":"194947163@N06","secret":"d42f79a561","server":"65535","farm":66,"title":"Neues Museum,Berlin","ispublic":1,"isfriend":0,"isfamily":0},{"id":"51857415920","owner":"192892098@N08","secret":"d7307fa4f8","server":"65535","farm":66,"title":"Berlin","ispublic":1,"isfriend":0,"isfamily":0},{"id":"51855798557","owner":"192892098@N08","secret":"319757dab3","server":"65535","farm":66,"title":"Berlin","ispublic":1,"isfriend":0,"isfamily":0},{"id":"51857414435","owner":"192892098@N08","secret":"15b8eeb6a9","server":"65535","farm":66,"title":"Berlin","ispublic":1,"isfriend":0,"isfamily":0},{"id":"51855797337","owner":"194947163@N06","secret":"db0dd88889","server":"65535","farm":66,"title":"Jewish Museum Berlin","ispublic":1,"isfriend":0,"isfamily":0},{"id":"51856719921","owner":"96487044@N02","secret":"d62334fe34","server":"65535","farm":66,"title":"British Airways Airbus A321neo G-NEOT at Heathrow Airport LHR\/EGLL","ispublic":1,"isfriend":0,"isfamily":0},{"id":"51856828313","owner":"66328256@N00","secret":"ea08bb71e2","server":"65535","farm":66,"title":"Bundesverfassungsgericht Karlsruhe","ispublic":1,"isfriend":0,"isfamily":0},{"id":"51856813288","owner":"163316741@N07","secret":"89eca0ae90","server":"65535","farm":66,"title":"Cygnus olor 28012022 (1)_11","ispublic":1,"isfriend":0,"isfamily":0},{"id":"51856699051","owner":"186952055@N04","secret":"1e6d38507c","server":"65535","farm":66,"title":"Dreharbeiten Ku\u00b4damm 63","ispublic":1,"isfriend":0,"isfamily":0},{"id":"51857345545","owner":"186952055@N04","secret":"3d2628ebe8","server":"65535","farm":66,"title":"Theater des Westens in Charlottenburg","ispublic":1,"isfriend":0,"isfamily":0},{"id":"51857016519","owner":"186952055@N04","secret":"a01d391396","server":"65535","farm":66,"title":"Bahnhof Olympiastadion in Charlottenburg","ispublic":1,"isfriend":0,"isfamily":0},{"id":"51857339850","owner":"186952055@N04","secret":"496611ef26","server":"65535","farm":66,"title":"Westend (Charlottenburg)","ispublic":1,"isfriend":0,"isfamily":0},{"id":"51857338910","owner":"186952055@N04","secret":"1f9829fd2b","server":"65535","farm":66,"title":"Westend (Charlottenburg)","ispublic":1,"isfriend":0,"isfamily":0},{"id":"51856670241","owner":"186952055@N04","secret":"16c884e862","server":"65535","farm":66,"title":"Am Theater des Westens in Charlottenburg","ispublic":1,"isfriend":0,"isfamily":0},{"id":"51856753083","owner":"186952055@N04","secret":"6eb5affa9f","server":"65535","farm":66,"title":"Am Theater des Westens in Charlottenburg","ispublic":1,"isfriend":0,"isfamily":0},{"id":"51856683246","owner":"194939851@N04","secret":"639131eba8","server":"65535","farm":66,"title":"this way","ispublic":1,"isfriend":0,"isfamily":0},{"id":"51856670381","owner":"145683341@N07","secret":"69eb25aaae","server":"65535","farm":66,"title":"Stripes of light","ispublic":1,"isfriend":0,"isfamily":0},{"id":"51855638627","owner":"65149948@N06","secret":"4d5904e5a8","server":"65535","farm":66,"title":"Baustelle Covivio-Hochhaus 2022-02-01","ispublic":1,"isfriend":0,"isfamily":0},{"id":"51856599256","owner":"65149948@N06","secret":"929dbde235","server":"65535","farm":66,"title":"Tramstau","ispublic":1,"isfriend":0,"isfamily":0},{"id":"51856967814","owner":"134368262@N05","secret":"d136d2c7a4","server":"65535","farm":66,"title":"BR 485 \"Coladose\" auf dem Nordring","ispublic":1,"isfriend":0,"isfamily":0},{"id":"51856702678","owner":"143115576@N02","secret":"d32b4d0108","server":"65535","farm":66,"title":"Anisopygus cf. pseudonymus ventral","ispublic":1,"isfriend":0,"isfamily":0},{"id":"51855628392","owner":"187203223@N07","secret":"19802791ee","server":"65535","farm":66,"title":"DB Cargo 232 618...","ispublic":1,"isfriend":0,"isfamily":0},{"id":"51856912749","owner":"193820855@N04","secret":"9fe8917ac0","server":"65535","farm":66,"title":"joscha baltha - townes","ispublic":1,"isfriend":0,"isfamily":0},{"id":"51857238140","owner":"153055993@N07","secret":"cb7b484bfd","server":"65535","farm":66,"title":"just a little flower","ispublic":1,"isfriend":0,"isfamily":0},{"id":"51856571571","owner":"106300142@N04","secret":"542529fd61","server":"65535","farm":66,"title":"Jewish cemetery Wei\u00dfensee","ispublic":1,"isfriend":0,"isfamily":0},{"id":"51856569406","owner":"81035303@N00","secret":"49706f771d","server":"65535","farm":66,"title":"The TV Tower from the Franziskaner Klosterkirche","ispublic":1,"isfriend":0,"isfamily":0},{"id":"51855596397","owner":"63126698@N05","secret":"2ffddb24ed","server":"65535","farm":66,"title":"Waschtag","ispublic":1,"isfriend":0,"isfamily":0},{"id":"51856557221","owner":"194924807@N02","secret":"96f89da8a3","server":"65535","farm":66,"title":"Pinched, Berlin, 2022","ispublic":1,"isfriend":0,"isfamily":0},{"id":"51857200525","owner":"185666666@N03","secret":"7762ac6e30","server":"65535","farm":66,"title":"Wintergruen","ispublic":1,"isfriend":0,"isfamily":0},{"id":"51856538711","owner":"194924807@N02","secret":"f58c6249f4","server":"65535","farm":66,"title":"Yann with a Tulip, Berlin, 2022","ispublic":1,"isfriend":0,"isfamily":0},{"id":"51855529222","owner":"13407304@N05","secret":"ba931db5e8","server":"65535","farm":66,"title":"Fred & Elizabeth's Wedding","ispublic":1,"isfriend":0,"isfamily":0},{"id":"51856458076","owner":"25794181@N05","secret":"935706a349","server":"65535","farm":66,"title":"Berlin, Oberbaumbr\u00fccke","ispublic":1,"isfriend":0,"isfamily":0},{"id":"51857116470","owner":"25794181@N05","secret":"f993496c72","server":"65535","farm":66,"title":"Potsdam, Nauener Tor (Berlin & Potsdam 2015)","ispublic":1,"isfriend":0,"isfamily":0},{"id":"51855496832","owner":"25794181@N05","secret":"fef68f397d","server":"65535","farm":66,"title":"Berlin, Fassadenmalerei an der B\u00fclowstra\u00dfe in Sch\u00f6nberg (Berlin & Potsdam 2017)","ispublic":1,"isfriend":0,"isfamily":0},{"id":"51855546677","owner":"88704109@N00","secret":"bd009de3c6","server":"65535","farm":66,"title":"Spandau Citadel","ispublic":1,"isfriend":0,"isfamily":0},{"id":"51857166445","owner":"88704109@N00","secret":"e69df57ec7","server":"65535","farm":66,"title":"Spandau Citadel","ispublic":1,"isfriend":0,"isfamily":0},{"id":"51855546672","owner":"88704109@N00","secret":"0e581d6fa1","server":"65535","farm":66,"title":"Spandau Citadel","ispublic":1,"isfriend":0,"isfamily":0},{"id":"51855508107","owner":"50776093@N02","secret":"ee2def6d5c","server":"65535","farm":66,"title":"_DSC0197sw","ispublic":1,"isfriend":0,"isfamily":0},{"id":"51856797809","owner":"85259079@N00","secret":"1636ddd9dd","server":"65535","farm":66,"title":"Kolonie Alt-Rheingau","ispublic":1,"isfriend":0,"isfamily":0},{"id":"51857126270","owner":"85259079@N00","secret":"2971a0fff0","server":"65535","farm":66,"title":"Kolonie Alt-Rheingau","ispublic":1,"isfriend":0,"isfamily":0},{"id":"51857126245","owner":"85259079@N00","secret":"2800cbea8f","server":"65535","farm":66,"title":"Kolonie Alt-Rheingau","ispublic":1,"isfriend":0,"isfamily":0},{"id":"51856459651","owner":"190274622@N05","secret":"7aa1bf68fd","server":"65535","farm":66,"title":"\u03c3\u1959\u027e \u026c\u03b9tt\u026c\u04bd \u03c3\u0273\u04bd\u0d1f\u2757","ispublic":1,"isfriend":0,"isfamily":0},{"id":"51855484237","owner":"143115576@N02","secret":"0438d64cfe","server":"65535","farm":66,"title":"Anisopygus cf. pseudonymus Ichneumoninae Mottakopf","ispublic":1,"isfriend":0,"isfamily":0},{"id":"51857103305","owner":"143115576@N02","secret":"2f879eb9a9","server":"65535","farm":66,"title":"Anisopygus cf. pseudonymus Ichneumoninae Mottakopf","ispublic":1,"isfriend":0,"isfamily":0},{"id":"51856640414","owner":"194835111@N03","secret":"9f28fb339e","server":"65535","farm":66,"title":"005_Berlin_MauerPark","ispublic":1,"isfriend":0,"isfamily":0},{"id":"51856309331","owner":"194835111@N03","secret":"a284aba7a8","server":"65535","farm":66,"title":"054_Berlin_SiegeSaule_interno","ispublic":1,"isfriend":0,"isfamily":0},{"id":"51856968095","owner":"194835111@N03","secret":"09cefc1c76","server":"65535","farm":66,"title":"200_Berlin_FernseherTurm","ispublic":1,"isfriend":0,"isfamily":0},{"id":"51856329246","owner":"47632980@N06","secret":"3a44b14382","server":"65535","farm":66,"title":"DSC04970","ispublic":1,"isfriend":0,"isfamily":0},{"id":"51856977905","owner":"32569229@N06","secret":"e571133194","server":"65535","farm":66,"title":"Mercedes-AMG G 63","ispublic":1,"isfriend":0,"isfamily":0},{"id":"51856312241","owner":"32569229@N06","secret":"5ba8b2df7c","server":"65535","farm":66,"title":"Bentley S2","ispublic":1,"isfriend":0,"isfamily":0},{"id":"51856394868","owner":"32569229@N06","secret":"850dcf1b19","server":"65535","farm":66,"title":"Porsche Cayman GT4","ispublic":1,"isfriend":0,"isfamily":0},{"id":"51856973385","owner":"67734410@N00","secret":"5557e9caea","server":"65535","farm":66,"title":"Berlin, Jan-2022","ispublic":1,"isfriend":0,"isfamily":0},{"id":"51856398183","owner":"67734410@N00","secret":"a11c1a915d","server":"65535","farm":66,"title":"Berlin, Jan-2022","ispublic":1,"isfriend":0,"isfamily":0},{"id":"51856643949","owner":"67734410@N00","secret":"e07605471d","server":"65535","farm":66,"title":"Berlin, Jan-2022","ispublic":1,"isfriend":0,"isfamily":0},{"id":"51856313571","owner":"67734410@N00","secret":"1d651fc037","server":"65535","farm":66,"title":"Berlin, Jan-2022","ispublic":1,"isfriend":0,"isfamily":0},{"id":"51856313491","owner":"67734410@N00","secret":"9b5269d0c3","server":"65535","farm":66,"title":"Berlin, Jan-2022","ispublic":1,"isfriend":0,"isfamily":0},{"id":"51856313461","owner":"67734410@N00","secret":"53afca2bbf","server":"65535","farm":66,"title":"Berlin, Jan-2022","ispublic":1,"isfriend":0,"isfamily":0},{"id":"51856313406","owner":"67734410@N00","secret":"5d6f3b8dde","server":"65535","farm":66,"title":"Berlin, Jan-2022","ispublic":1,"isfriend":0,"isfamily":0},{"id":"51856397753","owner":"67734410@N00","secret":"c7e65dfcc8","server":"65535","farm":66,"title":"Berlin, Jan-2022","ispublic":1,"isfriend":0,"isfamily":0},{"id":"51855353672","owner":"67734410@N00","secret":"112735cceb","server":"65535","farm":66,"title":"Berlin, Jan-2022","ispublic":1,"isfriend":0,"isfamily":0},{"id":"51856972710","owner":"67734410@N00","secret":"799a9cf3c1","server":"65535","farm":66,"title":"Berlin, Jan-2022","ispublic":1,"isfriend":0,"isfamily":0},{"id":"51856397583","owner":"67734410@N00","secret":"8dbf6be5d3","server":"65535","farm":66,"title":"Berlin, Jan-2022","ispublic":1,"isfriend":0,"isfamily":0},{"id":"51856972580","owner":"67734410@N00","secret":"618de3e034","server":"65535","farm":66,"title":"Berlin, Jan-2022","ispublic":1,"isfriend":0,"isfamily":0},{"id":"51856972555","owner":"67734410@N00","secret":"b3c7de180d","server":"65535","farm":66,"title":"Berlin, Jan-2022","ispublic":1,"isfriend":0,"isfamily":0},{"id":"51856312976","owner":"67734410@N00","secret":"e04a4bb9eb","server":"65535","farm":66,"title":"Berlin, Jan-2022","ispublic":1,"isfriend":0,"isfamily":0},{"id":"51856312931","owner":"67734410@N00","secret":"1d77d17e58","server":"65535","farm":66,"title":"Berlin, Jan-2022","ispublic":1,"isfriend":0,"isfamily":0},{"id":"51856788763","owner":"186952055@N04","secret":"f878f9eb7e","server":"65535","farm":66,"title":"Neues Kanzler Eck in Charlottenburg","ispublic":1,"isfriend":0,"isfamily":0},{"id":"51857354860","owner":"186952055@N04","secret":"0b4839ab55","server":"65535","farm":66,"title":"Dreharbeiten Ku\u00b4damm 63","ispublic":1,"isfriend":0,"isfamily":0},{"id":"51856696966","owner":"186952055@N04","secret":"8df265ab54","server":"65535","farm":66,"title":"Dreharbeiten Ku\u00b4damm 63","ispublic":1,"isfriend":0,"isfamily":0},{"id":"51857281645","owner":"194943838@N06","secret":"83230d95d0","server":"65535","farm":66,"title":"Berlin","ispublic":1,"isfriend":0,"isfamily":0}]},"stat":"ok"}
